%Se07^t#$1ia+p *&h4a2r#i saya m134a%%ka!n n#$&as$i p444a%d#ang
##D##a!@#n t#$4e#$1r4jadi l&*^agi
K%$s$23ah l76ama ya77ng te901rul3ang ke$%)*mba&*li
Na%^&s2i p465ada3ng ra31san#$%ya e4na&^@k se3#^@ka9li
Ka545u tem663uk==an1 la31%%gi3**
Ni*&kma446tnya==+ 2me1m3%$ang #t5$9ia13da #$t4ar8a^8n&ya
@@#$Dar#$1i ++_ci*&nt&^a r%%$um%^it y^$@an%$g k$%^au j)(*ala&^%*ni